﻿object={
	name="bush_dry_02_generator_2_0"
	clamp_to_water_level=no
	render_under_water=no
	generated_content=yes
	layer="semidynamic_high"
	pdxmesh="tree_bush_05_mesh"
	count=211
	transform="1340.034058 0.000000 2646.104492 0.000000 0.918668 0.000000 0.395030 0.246173 0.246173 0.246173
1293.340454 0.000000 2638.508057 0.000000 0.436121 0.000000 0.899888 0.238226 0.238226 0.238226
1336.471802 0.000000 2638.737305 0.000000 0.531456 0.000000 0.847086 0.240351 0.240351 0.240351
1343.025757 0.000000 2647.646484 0.000000 0.804418 0.000000 0.594063 0.243429 0.243429 0.243429
1295.355225 0.000000 2644.503418 0.000000 0.976020 0.000000 0.217680 0.247781 0.247781 0.247781
1296.398438 0.000000 2643.337646 0.000000 0.773707 0.000000 0.633544 0.241799 0.241799 0.241799
1341.367188 0.000000 2649.416992 0.000000 0.087846 0.000000 0.996134 0.231675 0.231675 0.231675
1293.130371 0.000000 2640.457520 0.000000 0.418755 0.000000 0.908099 0.236354 0.236354 0.236354
1297.052368 0.000000 2641.085693 0.000000 0.371778 0.000000 0.928322 0.234702 0.234702 0.234702
1335.950928 0.000000 2636.465332 0.000000 0.321152 0.000000 0.947028 0.235133 0.235133 0.235133
1295.808838 0.000000 2642.452637 0.000000 0.800181 0.000000 0.599758 0.241530 0.241530 0.241530
1294.090942 0.000000 2642.315186 0.000000 0.032972 0.000000 0.999456 0.229748 0.229748 0.229748
1295.305908 0.000000 2640.463623 0.000000 0.524949 0.000000 0.851133 0.234908 0.234908 0.234908
1347.385010 0.000000 2636.715820 0.000000 0.091580 0.000000 0.995798 0.236522 0.236522 0.236522
1348.788818 0.000000 2632.138184 0.000000 0.591581 0.000000 0.806245 0.241250 0.241250 0.241250
1344.517212 0.000000 2648.058350 0.000000 0.997541 0.000000 0.070087 0.249315 0.249315 0.249315
1350.382080 0.000000 2635.281250 0.000000 0.251837 0.000000 0.967770 0.236404 0.236404 0.236404
1348.465332 0.000000 2637.070801 0.000000 0.849788 0.000000 0.527125 0.243208 0.243208 0.243208
1349.862793 0.000000 2634.146240 0.000000 0.951580 0.000000 0.307401 0.245895 0.245895 0.245895
1348.652344 0.000000 2635.556396 0.000000 0.697487 0.000000 0.716597 0.239504 0.239504 0.239504
1304.535645 0.000000 2671.120605 0.000000 0.605013 0.000000 0.796216 0.241895 0.241895 0.241895
1306.245850 0.000000 2673.277588 0.000000 0.999962 0.000000 0.008729 0.249921 0.249921 0.249921
1333.071411 0.000000 2659.506836 0.000000 0.670655 0.000000 0.741770 0.241081 0.241081 0.241081
1335.353271 0.000000 2661.909424 0.000000 0.240143 0.000000 0.970738 0.234787 0.234787 0.234787
1360.244385 0.000000 2683.963379 0.000000 0.542822 0.000000 0.839848 0.241413 0.241413 0.241413
1365.235596 0.000000 2674.626709 0.000000 0.948533 0.000000 0.316679 0.247225 0.247225 0.247225
1366.404541 0.000000 2680.380859 0.000000 0.478672 0.000000 0.877994 0.237258 0.237258 0.237258
1367.724487 0.000000 2681.895020 0.000000 0.310954 0.000000 0.950425 0.235083 0.235083 0.235083
1367.342773 0.000000 2679.506104 0.000000 0.267017 0.000000 0.963692 0.234740 0.234740 0.234740
1766.535767 0.000000 2345.367432 0.000000 0.142251 0.000000 0.989831 0.238012 0.238012 0.238012
1789.507935 0.000000 2365.636230 0.000000 0.743570 0.000000 0.668658 0.243875 0.243875 0.243875
1772.376709 0.000000 2362.126953 0.000000 0.597961 0.000000 0.801526 0.242223 0.242223 0.242223
1783.062500 0.000000 2366.876953 0.000000 0.813013 0.000000 0.582246 0.244666 0.244666 0.244666
1781.519043 0.000000 2342.484863 0.000000 0.334203 0.000000 0.942501 0.239329 0.239329 0.239329
1791.510010 0.000000 2353.077881 0.000000 0.961834 0.000000 0.273633 0.247561 0.247561 0.247561
1783.044800 0.000000 2354.947754 0.000000 0.998020 0.000000 0.062896 0.249428 0.249428 0.249428
1774.782471 0.000000 2357.923584 0.000000 0.996330 0.000000 0.085596 0.249192 0.249192 0.249192
1777.129272 0.000000 2366.265381 0.000000 0.276307 0.000000 0.961070 0.238116 0.238116 0.238116
1775.085327 0.000000 2354.687500 0.000000 0.346354 0.000000 0.938104 0.238074 0.238074 0.238074
1777.031494 0.000000 2362.197998 0.000000 0.064885 0.000000 0.997893 0.235620 0.235620 0.235620
1785.190552 0.000000 2357.966309 0.000000 0.971604 0.000000 0.236612 0.247779 0.247779 0.247779
1778.103760 0.000000 2364.192383 0.000000 0.720647 0.000000 0.693302 0.242637 0.242637 0.242637
1768.179810 0.000000 2344.043945 0.000000 0.836366 0.000000 0.548171 0.244731 0.244731 0.244731
1775.436157 0.000000 2350.580811 0.000000 0.888300 0.000000 0.459263 0.245548 0.245548 0.245548
1768.198975 0.000000 2346.705322 0.000000 0.155777 0.000000 0.987792 0.237067 0.237067 0.237067
1789.281982 0.000000 2359.814697 0.000000 0.818655 0.000000 0.574285 0.243987 0.243987 0.243987
1788.180420 0.000000 2349.961914 0.000000 0.776466 0.000000 0.630159 0.243575 0.243575 0.243575
1780.072754 0.000000 2364.362549 0.000000 0.335094 0.000000 0.942185 0.238263 0.238263 0.238263
1786.250000 0.000000 2349.351318 0.000000 0.992003 0.000000 0.126212 0.248780 0.248780 0.248780
1779.823975 0.000000 2360.193848 0.000000 0.619713 0.000000 0.784828 0.240143 0.240143 0.240143
1786.590454 0.000000 2358.413818 0.000000 0.749288 0.000000 0.662245 0.242478 0.242478 0.242478
1778.448486 0.000000 2359.084229 0.000000 0.911458 0.000000 0.411393 0.245303 0.245303 0.245303
1792.255005 0.000000 2363.000244 0.000000 0.948402 0.000000 0.317069 0.247402 0.247402 0.247402
1793.042969 0.000000 2348.360352 0.000000 0.998254 0.000000 0.059070 0.249471 0.249471 0.249471
5630.624512 0.000000 1082.023315 0.000000 0.221213 0.000000 0.975225 0.238602 0.238602 0.238602
5612.412598 0.000000 1115.476807 0.000000 0.985792 0.000000 0.167969 0.248583 0.248583 0.248583
5620.014648 0.000000 1082.046387 0.000000 0.143410 0.000000 0.989663 0.237576 0.237576 0.237576
5620.463867 0.000000 1088.284912 0.000000 0.946786 0.000000 0.321863 0.247147 0.247147 0.247147
5631.814453 0.000000 1091.647827 0.000000 0.883228 0.000000 0.468944 0.245552 0.245552 0.245552
5614.782227 0.000000 1115.267212 0.000000 0.846926 0.000000 0.531710 0.244699 0.244699 0.244699
5625.360352 0.000000 1084.459839 0.000000 0.502270 0.000000 0.864711 0.239927 0.239927 0.239927
5624.379395 0.000000 1087.583862 0.000000 0.298362 0.000000 0.954453 0.237181 0.237181 0.237181
5622.203613 0.000000 1113.533569 0.000000 0.991260 0.000000 0.131921 0.248567 0.248567 0.248567
5626.750488 0.000000 1087.690552 0.000000 0.211491 0.000000 0.977380 0.232247 0.232247 0.232247
5629.982422 0.000000 1084.728027 0.000000 0.719740 0.000000 0.694244 0.241116 0.241116 0.241116
5628.125488 0.000000 1084.097656 0.000000 0.932702 0.000000 0.360649 0.245728 0.245728 0.245728
5623.950684 0.000000 1111.387085 0.000000 0.976680 0.000000 0.214699 0.247468 0.247468 0.247468
5626.650879 0.000000 1084.381104 0.000000 0.392098 0.000000 0.919923 0.235640 0.235640 0.235640
5624.792480 0.000000 1091.472656 0.000000 0.795737 0.000000 0.605642 0.241798 0.241798 0.241798
5558.609375 0.000000 1157.536133 0.000000 0.485442 0.000000 0.874269 0.238379 0.238379 0.238379
5559.777832 0.000000 1158.622559 0.000000 0.092871 0.000000 0.995678 0.231276 0.231276 0.231276
5559.580566 0.000000 1159.727173 0.000000 0.452730 0.000000 0.891647 0.236051 0.236051 0.236051
5582.033691 0.000000 1135.578491 0.000000 0.003962 0.000000 0.999992 0.235282 0.235282 0.235282
5568.712402 0.000000 1147.908447 0.000000 0.754265 0.000000 0.656571 0.243339 0.243339 0.243339
5597.096680 0.000000 1130.083740 0.000000 0.714433 0.000000 0.699704 0.242043 0.242043 0.242043
5598.725586 0.000000 1133.280029 0.000000 0.962616 0.000000 0.270869 0.247406 0.247406 0.247406
5580.251465 0.000000 1136.523560 0.000000 0.986121 0.000000 0.166026 0.248428 0.248428 0.248428
5603.182129 0.000000 1136.453857 0.000000 0.279781 0.000000 0.960064 0.237467 0.237467 0.237467
5599.750977 0.000000 1136.270508 0.000000 0.860983 0.000000 0.508633 0.244305 0.244305 0.244305
5575.500488 0.000000 1148.983887 0.000000 0.825826 0.000000 0.563924 0.243232 0.243232 0.243232
5572.081543 0.000000 1149.657349 0.000000 0.501534 0.000000 0.865138 0.236950 0.236950 0.236950
5573.319336 0.000000 1149.655884 0.000000 0.800672 0.000000 0.599104 0.241981 0.241981 0.241981
5596.237305 0.000000 1133.662842 0.000000 0.205346 0.000000 0.978689 0.232633 0.232633 0.232633
5568.125977 0.000000 1149.109497 0.000000 0.791619 0.000000 0.611014 0.241815 0.241815 0.241815
5521.722656 0.000000 1238.349243 0.000000 0.515583 0.000000 0.856840 0.241168 0.241168 0.241168
5521.255371 0.000000 1196.460327 0.000000 0.989049 0.000000 0.147588 0.248271 0.248271 0.248271
5520.122070 0.000000 1197.105591 0.000000 0.585556 0.000000 0.810632 0.238968 0.238968 0.238968
5532.025391 0.000000 1192.542725 0.000000 0.661542 0.000000 0.749908 0.239574 0.239574 0.239574
5524.807617 0.000000 1195.650879 0.000000 0.869483 0.000000 0.493963 0.242197 0.242197 0.242197
5447.440918 0.000000 1293.063354 0.000000 0.649691 0.000000 0.760198 0.241942 0.241942 0.241942
5479.039551 0.000000 1282.817871 0.000000 0.668356 0.000000 0.743841 0.242016 0.242016 0.242016
5470.190918 0.000000 1279.710083 0.000000 0.085991 0.000000 0.996296 0.235637 0.235637 0.235637
5462.025391 0.000000 1284.950317 0.000000 0.737302 0.000000 0.675564 0.242431 0.242431 0.242431
5472.608398 0.000000 1274.187500 0.000000 0.955405 0.000000 0.295298 0.246735 0.246735 0.246735
5471.740723 0.000000 1287.624878 0.000000 0.828016 0.000000 0.560705 0.242960 0.242960 0.242960
5472.813477 0.000000 1286.162109 0.000000 0.999012 0.000000 0.044446 0.249524 0.249524 0.249524
5475.804199 0.000000 1285.957642 0.000000 0.851603 0.000000 0.524187 0.243767 0.243767 0.243767
5472.342773 0.000000 1277.701660 0.000000 0.925573 0.000000 0.378569 0.245638 0.245638 0.245638
5470.526367 0.000000 1287.111694 0.000000 0.514561 0.000000 0.857454 0.237814 0.237814 0.237814
5464.446289 0.000000 1285.995483 0.000000 0.939695 0.000000 0.342014 0.244717 0.244717 0.244717
5470.405762 0.000000 1280.896118 0.000000 0.038310 0.000000 0.999266 0.228001 0.228001 0.228001
5465.062012 0.000000 1282.906250 0.000000 0.506276 0.000000 0.862371 0.233449 0.233449 0.233449
5468.669922 0.000000 1280.730225 0.000000 0.064330 0.000000 0.997929 0.226542 0.226542 0.226542
5632.514160 0.000000 1089.283936 0.000000 0.337537 0.000000 0.941312 0.239704 0.239704 0.239704
5654.937012 0.000000 1144.114868 0.000000 0.297461 0.000000 0.954734 0.239547 0.239547 0.239547
5666.111328 0.000000 1161.302734 0.000000 0.450872 0.000000 0.892589 0.240396 0.240396 0.240396
5660.944336 0.000000 1165.554932 0.000000 0.279706 0.000000 0.960086 0.238390 0.238390 0.238390
5655.885254 0.000000 1155.467651 0.000000 0.663022 0.000000 0.748600 0.242318 0.242318 0.242318
5659.528320 0.000000 1164.226685 0.000000 0.732882 0.000000 0.680355 0.242808 0.242808 0.242808
5653.452637 0.000000 1151.670410 0.000000 0.787167 0.000000 0.616740 0.243612 0.243612 0.243612
5652.433105 0.000000 1146.702026 0.000000 0.921383 0.000000 0.388655 0.245989 0.245989 0.245989
5648.278320 0.000000 1150.406738 0.000000 0.284567 0.000000 0.958656 0.237035 0.237035 0.237035
5654.351074 0.000000 1148.427979 0.000000 0.812485 0.000000 0.582982 0.243726 0.243726 0.243726
5659.529297 0.000000 1160.373413 0.000000 0.982814 0.000000 0.184598 0.248076 0.248076 0.248076
5657.742188 0.000000 1158.738770 0.000000 0.967724 0.000000 0.252012 0.247043 0.247043 0.247043
5654.619629 0.000000 1163.208618 0.000000 0.062237 0.000000 0.998061 0.233288 0.233288 0.233288
5651.693848 0.000000 1159.023193 0.000000 0.251852 0.000000 0.967766 0.234268 0.234268 0.234268
5655.724609 0.000000 1156.817017 0.000000 0.048081 0.000000 0.998843 0.230755 0.230755 0.230755
5654.742676 0.000000 1156.315674 0.000000 0.999876 0.000000 0.015778 0.249801 0.249801 0.249801
5652.484375 0.000000 1154.460938 0.000000 0.292113 0.000000 0.956384 0.232263 0.232263 0.232263
5648.505371 0.000000 1153.815918 0.000000 0.611252 0.000000 0.791436 0.238003 0.238003 0.238003
5655.371582 0.000000 1159.098755 0.000000 0.954931 0.000000 0.296828 0.245617 0.245617 0.245617
5652.185547 0.000000 1158.215942 0.000000 0.908722 0.000000 0.417402 0.243160 0.243160 0.243160
5650.979004 0.000000 1154.439331 0.000000 0.601317 0.000000 0.799011 0.235268 0.235268 0.235268
5650.499512 0.000000 1157.708740 0.000000 0.373963 0.000000 0.927444 0.231100 0.231100 0.231100
5651.430176 0.000000 1156.861206 0.000000 0.822422 0.000000 0.568878 0.240369 0.240369 0.240369
5653.000977 0.000000 1156.176514 0.000000 0.249328 0.000000 0.968419 0.229010 0.229010 0.229010
5652.269043 0.000000 1157.409180 0.000000 0.024379 0.000000 0.999703 0.225388 0.225388 0.225388
5687.848633 0.000000 1186.234985 0.000000 0.515302 0.000000 0.857009 0.239431 0.239431 0.239431
4668.771484 0.000000 2409.427979 0.000000 0.995100 0.000000 0.098871 0.249039 0.249039 0.249039
4693.235840 0.000000 2392.204834 0.000000 0.941375 0.000000 0.337361 0.247025 0.247025 0.247025
4686.389160 0.000000 2405.728516 0.000000 0.447986 0.000000 0.894040 0.240126 0.240126 0.240126
4702.816895 0.000000 2386.781494 0.000000 0.578278 0.000000 0.815840 0.240918 0.240918 0.240918
4696.230957 0.000000 2387.352539 0.000000 0.676306 0.000000 0.736621 0.240956 0.240956 0.240956
4816.728516 0.000000 2428.834717 0.000000 0.961034 0.000000 0.276430 0.247247 0.247247 0.247247
4814.749512 0.000000 2428.859131 0.000000 0.762139 0.000000 0.647413 0.243210 0.243210 0.243210
4981.449707 0.000000 2422.235352 0.000000 0.631917 0.000000 0.775036 0.241477 0.241477 0.241477
4999.784180 0.000000 2482.144531 0.000000 0.618765 0.000000 0.785577 0.240948 0.240948 0.240948
5012.440918 0.000000 2484.334717 0.000000 0.222712 0.000000 0.974884 0.236389 0.236389 0.236389
4995.162109 0.000000 2480.879883 0.000000 0.983447 0.000000 0.181197 0.248175 0.248175 0.248175
5003.568848 0.000000 2484.781494 0.000000 0.929712 0.000000 0.368287 0.245951 0.245951 0.245951
5013.894043 0.000000 2482.102051 0.000000 0.116615 0.000000 0.993177 0.234846 0.234846 0.234846
5010.134277 0.000000 2485.228271 0.000000 0.740582 0.000000 0.671966 0.241607 0.241607 0.241607
4923.590332 0.000000 2488.465088 0.000000 0.886099 0.000000 0.463495 0.244661 0.244661 0.244661
4936.614258 0.000000 2498.841309 0.000000 0.538584 0.000000 0.842572 0.241119 0.241119 0.241119
4982.158691 0.000000 2517.372314 0.000000 0.835108 0.000000 0.550087 0.244838 0.244838 0.244838
4986.561523 0.000000 2517.071777 0.000000 0.847143 0.000000 0.531366 0.244913 0.244913 0.244913
4966.792969 0.000000 2488.124512 0.000000 0.872304 0.000000 0.488964 0.245376 0.245376 0.245376
4932.035156 0.000000 2491.532227 0.000000 0.865003 0.000000 0.501767 0.245145 0.245145 0.245145
4935.015137 0.000000 2493.534668 0.000000 0.358484 0.000000 0.933536 0.236810 0.236810 0.236810
4991.927246 0.000000 2500.057861 0.000000 0.066213 0.000000 0.997805 0.231924 0.231924 0.231924
4969.341797 0.000000 2513.962402 0.000000 0.995469 0.000000 0.095084 0.248695 0.248695 0.248695
4990.282715 0.000000 2501.433350 0.000000 0.524212 0.000000 0.851588 0.237757 0.237757 0.237757
4974.890137 0.000000 2521.567383 0.000000 0.619998 0.000000 0.784603 0.238881 0.238881 0.238881
4969.240234 0.000000 2515.829102 0.000000 0.904416 0.000000 0.426652 0.243425 0.243425 0.243425
5003.486816 0.000000 2493.872070 0.000000 0.351405 0.000000 0.936223 0.239525 0.239525 0.239525
5000.667480 0.000000 2490.091797 0.000000 0.193314 0.000000 0.981137 0.238103 0.238103 0.238103
4997.141602 0.000000 2510.818848 0.000000 0.993441 0.000000 0.114347 0.248956 0.248956 0.248956
4996.756836 0.000000 2504.105713 0.000000 0.536293 0.000000 0.844032 0.240844 0.240844 0.240844
4992.712402 0.000000 2503.533447 0.000000 0.177480 0.000000 0.984124 0.237356 0.237356 0.237356
4992.597656 0.000000 2505.779785 0.000000 0.997373 0.000000 0.072442 0.249296 0.249296 0.249296
5006.777344 0.000000 2505.564697 0.000000 0.778560 0.000000 0.627571 0.243098 0.243098 0.243098
5000.993164 0.000000 2488.439209 0.000000 0.407058 0.000000 0.913402 0.238213 0.238213 0.238213
5001.923828 0.000000 2502.906982 0.000000 0.626896 0.000000 0.779103 0.240745 0.240745 0.240745
5001.352539 0.000000 2486.922119 0.000000 0.179251 0.000000 0.983803 0.235376 0.235376 0.235376
5011.337891 0.000000 2485.471436 0.000000 0.044959 0.000000 0.998989 0.232620 0.232620 0.232620
5004.740234 0.000000 2497.867432 0.000000 0.178289 0.000000 0.983978 0.228417 0.228417 0.228417
5003.201660 0.000000 2496.644775 0.000000 0.416755 0.000000 0.909019 0.233444 0.233444 0.233444
5005.274414 0.000000 2502.652832 0.000000 0.999123 0.000000 0.041862 0.249420 0.249420 0.249420
5009.243164 0.000000 2498.894287 0.000000 0.077479 0.000000 0.996994 0.226234 0.226234 0.226234
5009.948242 0.000000 2499.516846 0.000000 0.564776 0.000000 0.825244 0.234552 0.234552 0.234552
5805.531250 0.000000 2277.768066 0.000000 0.089405 0.000000 0.995995 0.234514 0.234514 0.234514
5804.147461 0.000000 2275.010498 0.000000 0.259109 0.000000 0.965848 0.235706 0.235706 0.235706
5805.641602 0.000000 2275.731934 0.000000 0.340761 0.000000 0.940150 0.236641 0.236641 0.236641
5806.867676 0.000000 2289.834717 0.000000 0.248591 0.000000 0.968609 0.236699 0.236699 0.236699
5799.871094 0.000000 2279.810547 0.000000 0.265000 0.000000 0.964248 0.235732 0.235732 0.235732
5804.330078 0.000000 2278.139893 0.000000 0.271302 0.000000 0.962494 0.235359 0.235359 0.235359
5810.101562 0.000000 2292.319824 0.000000 0.005483 0.000000 0.999985 0.227725 0.227725 0.227725
5884.034180 0.000000 2307.198242 0.000000 0.967265 0.000000 0.253767 0.247542 0.247542 0.247542
5847.673828 0.000000 2265.331055 0.000000 0.476860 0.000000 0.878979 0.238507 0.238507 0.238507
5856.618164 0.000000 2319.225098 0.000000 0.703874 0.000000 0.710325 0.243344 0.243344 0.243344
5872.918945 0.000000 2330.845459 0.000000 0.999907 0.000000 0.013639 0.249883 0.249883 0.249883
5840.278320 0.000000 2329.415039 0.000000 0.841398 0.000000 0.540416 0.244566 0.244566 0.244566
5860.990723 0.000000 2316.544922 0.000000 0.723799 0.000000 0.690011 0.242514 0.242514 0.242514
5878.485352 0.000000 2341.273682 0.000000 0.999136 0.000000 0.041565 0.249546 0.249546 0.249546
5861.802246 0.000000 2334.136230 0.000000 0.990446 0.000000 0.137903 0.248532 0.248532 0.248532
5845.323242 0.000000 2357.081299 0.000000 0.607960 0.000000 0.793968 0.239723 0.239723 0.239723
5877.096680 0.000000 2329.769775 0.000000 0.929814 0.000000 0.368031 0.245684 0.245684 0.245684
5862.962402 0.000000 2416.523682 0.000000 0.710971 0.000000 0.703221 0.242966 0.242966 0.242966
5874.103516 0.000000 2420.676758 0.000000 0.980261 0.000000 0.197710 0.248131 0.248131 0.248131
5856.293457 0.000000 2421.351318 0.000000 0.053168 0.000000 0.998586 0.234513 0.234513 0.234513
5924.742188 0.000000 2369.064453 0.000000 0.396274 0.000000 0.918132 0.239036 0.239036 0.239036
5909.452637 0.000000 2337.842285 0.000000 0.933522 0.000000 0.358521 0.246464 0.246464 0.246464
5925.805176 0.000000 2371.385986 0.000000 0.599771 0.000000 0.800172 0.239463 0.239463 0.239463
5900.904785 0.000000 2343.341797 0.000000 0.164892 0.000000 0.986312 0.232898 0.232898 0.232898
5917.995605 0.000000 2340.425537 0.000000 0.997732 0.000000 0.067306 0.249220 0.249220 0.249220
5899.442871 0.000000 2390.152344 0.000000 0.330657 0.000000 0.943751 0.238796 0.238796 0.238796
5942.255859 0.000000 2381.103760 0.000000 0.036789 0.000000 0.999323 0.235639 0.235639 0.235639
5901.704590 0.000000 2385.170410 0.000000 0.950802 0.000000 0.309798 0.247090 0.247090 0.247090
5948.180664 0.000000 2462.930664 0.000000 0.533436 0.000000 0.845840 0.240216 0.240216 0.240216
5946.250000 0.000000 2462.320068 0.000000 0.965226 0.000000 0.261417 0.247334 0.247334 0.247334
5932.442383 0.000000 2435.340820 0.000000 0.973453 0.000000 0.228887 0.247485 0.247485 0.247485
5949.810547 0.000000 2462.481689 0.000000 0.592837 0.000000 0.805322 0.240914 0.240914 0.240914
5991.778320 0.000000 2484.663086 0.000000 0.990476 0.000000 0.137688 0.248629 0.248629 0.248629
6004.679199 0.000000 2448.517334 0.000000 0.879236 0.000000 0.476386 0.245119 0.245119 0.245119
6006.403320 0.000000 2448.513916 0.000000 0.908413 0.000000 0.418073 0.245787 0.245787 0.245787
6001.542480 0.000000 2450.256836 0.000000 0.557523 0.000000 0.830161 0.239089 0.239089 0.239089
5997.887207 0.000000 2468.060059 0.000000 0.371000 0.000000 0.928633 0.236512 0.236512 0.236512
5988.990723 0.000000 2485.998047 0.000000 0.001537 0.000000 0.999999 0.234966 0.234966 0.234966
6378.219238 0.000000 2362.073975 0.000000 0.851894 0.000000 0.523714 0.245046 0.245046 0.245046
6339.094727 0.000000 2370.643555 0.000000 0.307775 0.000000 0.951459 0.235750 0.235750 0.235750
"}
object={
	name="bush_dry_02_generator_2_1"
	clamp_to_water_level=no
	render_under_water=no
	generated_content=yes
	layer="semidynamic_high"
	pdxmesh="tree_bush_06_mesh"
	count=254
	transform="1341.124756 0.000000 2650.760498 0.000000 0.021445 0.000000 -0.999770 0.264312 0.264312 0.264312
1290.235718 0.000000 2641.965576 0.000000 0.667363 0.000000 -0.744732 0.257708 0.257708 0.257708
1299.070923 0.000000 2641.649170 0.000000 0.468767 0.000000 -0.883322 0.260645 0.260645 0.260645
1342.675171 0.000000 2650.032471 0.000000 0.871713 0.000000 -0.490016 0.255114 0.255114 0.255114
1296.024658 0.000000 2639.699951 0.000000 0.682856 0.000000 -0.730553 0.259024 0.259024 0.259024
1337.993408 0.000000 2634.877197 0.000000 0.022403 0.000000 -0.999749 0.266284 0.266284 0.266284
1293.681763 0.000000 2643.950195 0.000000 0.000992 0.000000 -1.000000 0.267734 0.267734 0.267734
1294.943481 0.000000 2638.875732 0.000000 0.999840 0.000000 -0.017863 0.250212 0.250212 0.250212
1292.105225 0.000000 2641.179932 0.000000 0.759803 0.000000 -0.650153 0.258482 0.258482 0.258482
1340.564941 0.000000 2648.650879 0.000000 0.249797 0.000000 -0.968298 0.266292 0.266292 0.266292
1336.073242 0.000000 2637.719971 0.000000 0.929726 0.000000 -0.368252 0.255049 0.255049 0.255049
1295.000977 0.000000 2641.965332 0.000000 0.988653 0.000000 -0.150216 0.252235 0.252235 0.252235
1319.104736 0.000000 2666.659180 0.000000 0.881813 0.000000 -0.471599 0.254858 0.254858 0.254858
1307.504272 0.000000 2668.743896 0.000000 0.843152 0.000000 -0.537676 0.255509 0.255509 0.255509
1321.262451 0.000000 2668.103271 0.000000 0.597990 0.000000 -0.801503 0.259082 0.259082 0.259082
1319.789673 0.000000 2668.703125 0.000000 0.715119 0.000000 -0.699003 0.257971 0.257971 0.257971
1334.026245 0.000000 2659.675781 0.000000 0.843310 0.000000 -0.537428 0.258304 0.258304 0.258304
1367.105835 0.000000 2676.002197 0.000000 0.338401 0.000000 -0.941002 0.261971 0.261971 0.261971
1366.981567 0.000000 2682.990234 0.000000 0.285168 0.000000 -0.958478 0.262958 0.262958 0.262958
1362.172485 0.000000 2679.912842 0.000000 0.434428 0.000000 -0.900707 0.263648 0.263648 0.263648
1365.042847 0.000000 2682.669434 0.000000 0.903876 0.000000 -0.427794 0.254980 0.254980 0.254980
1364.484253 0.000000 2679.539062 0.000000 0.830624 0.000000 -0.556834 0.258220 0.258220 0.258220
1772.412598 0.000000 2358.133057 0.000000 0.621975 0.000000 -0.783037 0.257579 0.257579 0.257579
1769.656006 0.000000 2355.969238 0.000000 0.988943 0.000000 -0.148294 0.251259 0.251259 0.251259
1779.759033 0.000000 2347.224121 0.000000 0.798953 0.000000 -0.601393 0.255598 0.255598 0.255598
1776.580444 0.000000 2346.300049 0.000000 0.760008 0.000000 -0.649913 0.256071 0.256071 0.256071
1786.637329 0.000000 2342.792969 0.000000 0.652027 0.000000 -0.758196 0.257412 0.257412 0.257412
1787.001099 0.000000 2353.660400 0.000000 0.772793 0.000000 -0.634658 0.256351 0.256351 0.256351
1772.051758 0.000000 2347.953613 0.000000 0.178982 0.000000 -0.983852 0.262196 0.262196 0.262196
1782.158813 0.000000 2347.919189 0.000000 0.599861 0.000000 -0.800104 0.258625 0.258625 0.258625
1781.633789 0.000000 2352.916504 0.000000 0.776778 0.000000 -0.629774 0.256038 0.256038 0.256038
1771.659790 0.000000 2352.039062 0.000000 0.459361 0.000000 -0.888250 0.260306 0.260306 0.260306
1784.742188 0.000000 2345.753174 0.000000 0.120119 0.000000 -0.992759 0.263579 0.263579 0.263579
1791.163452 0.000000 2348.533936 0.000000 0.974796 0.000000 -0.223097 0.252015 0.252015 0.252015
1786.561523 0.000000 2347.618652 0.000000 0.824838 0.000000 -0.565369 0.255888 0.255888 0.255888
1791.374634 0.000000 2355.954834 0.000000 0.134449 0.000000 -0.990920 0.263174 0.263174 0.263174
1773.814819 0.000000 2352.405518 0.000000 0.989671 0.000000 -0.143360 0.251383 0.251383 0.251383
1787.003418 0.000000 2361.869141 0.000000 0.895233 0.000000 -0.445599 0.254324 0.254324 0.254324
1771.060303 0.000000 2349.992920 0.000000 0.033151 0.000000 -0.999450 0.263916 0.263916 0.263916
1778.394165 0.000000 2367.981201 0.000000 0.994262 0.000000 -0.106970 0.250980 0.250980 0.250980
1789.382446 0.000000 2346.161621 0.000000 0.516464 0.000000 -0.856309 0.259657 0.259657 0.259657
1780.316895 0.000000 2344.985352 0.000000 0.650176 0.000000 -0.759784 0.257864 0.257864 0.257864
1785.007446 0.000000 2361.520020 0.000000 0.209609 0.000000 -0.977785 0.263153 0.263153 0.263153
1788.454834 0.000000 2356.198486 0.000000 0.376458 0.000000 -0.926434 0.261832 0.261832 0.261832
1781.449585 0.000000 2365.750977 0.000000 0.896330 0.000000 -0.443388 0.254387 0.254387 0.254387
1783.893433 0.000000 2359.364258 0.000000 0.233208 0.000000 -0.972427 0.263836 0.263836 0.263836
1780.695435 0.000000 2362.831543 0.000000 0.352410 0.000000 -0.935846 0.262657 0.262657 0.262657
1782.280518 0.000000 2362.438721 0.000000 0.314639 0.000000 -0.949212 0.262490 0.262490 0.262490
1778.908447 0.000000 2354.625244 0.000000 0.999980 0.000000 -0.006354 0.250066 0.250066 0.250066
1778.477905 0.000000 2357.735107 0.000000 0.048292 0.000000 -0.998833 0.266629 0.266629 0.266629
1779.747925 0.000000 2357.314697 0.000000 0.202308 0.000000 -0.979322 0.264932 0.264932 0.264932
1781.881348 0.000000 2358.019043 0.000000 0.938534 0.000000 -0.345188 0.253904 0.253904 0.253904
5586.579102 0.000000 1128.391968 0.000000 0.777160 0.000000 -0.629303 0.255735 0.255735 0.255735
5629.032715 0.000000 1095.391235 0.000000 0.384100 0.000000 -0.923292 0.260207 0.260207 0.260207
5621.566895 0.000000 1085.665405 0.000000 0.097798 0.000000 -0.995206 0.262824 0.262824 0.262824
5621.428223 0.000000 1091.044312 0.000000 0.473576 0.000000 -0.880753 0.259381 0.259381 0.259381
5628.201172 0.000000 1093.793701 0.000000 0.317564 0.000000 -0.948237 0.263666 0.263666 0.263666
5625.773926 0.000000 1094.991943 0.000000 0.038096 0.000000 -0.999274 0.266358 0.266358 0.266358
5622.834961 0.000000 1110.877686 0.000000 0.155650 0.000000 -0.987812 0.266553 0.266553 0.266553
5629.039062 0.000000 1091.544312 0.000000 0.595615 0.000000 -0.803270 0.261294 0.261294 0.261294
5617.743164 0.000000 1112.848877 0.000000 0.072980 0.000000 -0.997333 0.267200 0.267200 0.267200
5616.161133 0.000000 1112.552246 0.000000 0.497130 0.000000 -0.867676 0.262064 0.262064 0.262064
5626.833496 0.000000 1092.612305 0.000000 0.564085 0.000000 -0.825717 0.263279 0.263279 0.263279
5628.159668 0.000000 1090.839355 0.000000 0.636228 0.000000 -0.771501 0.260670 0.260670 0.260670
5626.830078 0.000000 1091.457397 0.000000 0.980799 0.000000 -0.195020 0.252738 0.252738 0.252738
5624.766113 0.000000 1092.605103 0.000000 0.824133 0.000000 -0.566396 0.257742 0.257742 0.257742
5625.661133 0.000000 1090.935181 0.000000 0.423007 0.000000 -0.906127 0.264297 0.264297 0.264297
5625.683594 0.000000 1093.112305 0.000000 0.936977 0.000000 -0.349392 0.254589 0.254589 0.254589
5627.654297 0.000000 1093.036377 0.000000 0.900862 0.000000 -0.434106 0.256138 0.256138 0.256138
5556.319336 0.000000 1157.313232 0.000000 0.963014 0.000000 -0.269450 0.252784 0.252784 0.252784
5561.187988 0.000000 1161.172852 0.000000 0.150767 0.000000 -0.988569 0.265149 0.265149 0.265149
5559.129883 0.000000 1156.280884 0.000000 0.741799 0.000000 -0.670622 0.258028 0.258028 0.258028
5593.661133 0.000000 1132.753662 0.000000 0.508026 0.000000 -0.861342 0.258940 0.258940 0.258940
5598.961914 0.000000 1130.648804 0.000000 0.594594 0.000000 -0.804026 0.258220 0.258220 0.258220
5570.944824 0.000000 1147.083496 0.000000 0.650312 0.000000 -0.759667 0.258158 0.258158 0.258158
5578.166504 0.000000 1136.201172 0.000000 0.276976 0.000000 -0.960877 0.262280 0.262280 0.262280
5601.049316 0.000000 1130.937744 0.000000 0.894320 0.000000 -0.447428 0.254357 0.254357 0.254357
5602.934570 0.000000 1133.256714 0.000000 0.437051 0.000000 -0.899437 0.260227 0.260227 0.260227
5571.095703 0.000000 1145.137573 0.000000 0.911626 0.000000 -0.411020 0.254058 0.254058 0.254058
5598.021484 0.000000 1137.954468 0.000000 0.037452 0.000000 -0.999298 0.266365 0.266365 0.266365
5602.937012 0.000000 1131.472168 0.000000 0.992089 0.000000 -0.125538 0.251304 0.251304 0.251304
5601.519531 0.000000 1137.548462 0.000000 0.674833 0.000000 -0.737970 0.258056 0.258056 0.258056
5595.133789 0.000000 1133.217651 0.000000 0.379265 0.000000 -0.925288 0.262244 0.262244 0.262244
5598.425293 0.000000 1136.571899 0.000000 0.186806 0.000000 -0.982397 0.264759 0.264759 0.264759
5570.058594 0.000000 1148.126831 0.000000 0.934617 0.000000 -0.355657 0.253881 0.253881 0.253881
5571.455566 0.000000 1148.368652 0.000000 0.017013 0.000000 -0.999855 0.266583 0.266583 0.266583
5574.218750 0.000000 1148.761597 0.000000 0.260088 0.000000 -0.965585 0.264773 0.264773 0.264773
5569.312988 0.000000 1149.173096 0.000000 0.618325 0.000000 -0.785922 0.261259 0.261259 0.261259
5597.639160 0.000000 1133.162720 0.000000 0.889424 0.000000 -0.457083 0.256044 0.256044 0.256044
5523.737305 0.000000 1192.653564 0.000000 0.764341 0.000000 -0.644812 0.258135 0.258135 0.258135
5532.834961 0.000000 1194.847656 0.000000 0.936766 0.000000 -0.349955 0.254318 0.254318 0.254318
5522.209473 0.000000 1197.075439 0.000000 0.237241 0.000000 -0.971451 0.266119 0.266119 0.266119
5533.493652 0.000000 1193.529663 0.000000 0.743373 0.000000 -0.668877 0.259009 0.259009 0.259009
5524.295898 0.000000 1194.901855 0.000000 0.312974 0.000000 -0.949762 0.268918 0.268918 0.268918
5525.444336 0.000000 1196.844971 0.000000 0.663992 0.000000 -0.747740 0.262151 0.262151 0.262151
5525.886230 0.000000 1195.131226 0.000000 0.577882 0.000000 -0.816121 0.264419 0.264419 0.264419
5448.908691 0.000000 1288.556274 0.000000 0.131587 0.000000 -0.991305 0.262213 0.262213 0.262213
5474.857422 0.000000 1271.785156 0.000000 0.996008 0.000000 -0.089265 0.250764 0.250764 0.250764
5462.911621 0.000000 1283.645874 0.000000 0.914834 0.000000 -0.403830 0.254255 0.254255 0.254255
5474.177734 0.000000 1269.589355 0.000000 0.885991 0.000000 -0.463703 0.254514 0.254514 0.254514
5466.057129 0.000000 1278.119385 0.000000 0.999597 0.000000 -0.028402 0.250285 0.250285 0.250285
5465.336426 0.000000 1280.654541 0.000000 0.626655 0.000000 -0.779297 0.259481 0.259481 0.259481
5472.284180 0.000000 1284.844971 0.000000 0.989541 0.000000 -0.144253 0.251635 0.251635 0.251635
5474.377441 0.000000 1286.383423 0.000000 0.722719 0.000000 -0.691142 0.258168 0.258168 0.258168
5471.786621 0.000000 1276.377686 0.000000 0.331453 0.000000 -0.943472 0.263929 0.263929 0.263929
5470.022949 0.000000 1286.069092 0.000000 0.392259 0.000000 -0.919855 0.263811 0.263811 0.263811
5467.430664 0.000000 1283.290894 0.000000 0.853015 0.000000 -0.521887 0.256186 0.256186 0.256186
5446.966309 0.000000 1290.526245 0.000000 0.365771 0.000000 -0.930705 0.263478 0.263478 0.263478
5473.315918 0.000000 1275.349243 0.000000 0.419635 0.000000 -0.907693 0.262391 0.262391 0.262391
5470.521973 0.000000 1276.102051 0.000000 0.627939 0.000000 -0.778262 0.260076 0.260076 0.260076
5447.959473 0.000000 1291.915039 0.000000 0.061661 0.000000 -0.998097 0.267001 0.267001 0.267001
5466.672852 0.000000 1280.931641 0.000000 0.826050 0.000000 -0.563597 0.258595 0.258595 0.258595
5467.906250 0.000000 1281.070557 0.000000 0.218555 0.000000 -0.975825 0.269386 0.269386 0.269386
5464.785156 0.000000 1285.153564 0.000000 0.629322 0.000000 -0.777145 0.263472 0.263472 0.263472
5467.358398 0.000000 1280.297363 0.000000 0.998462 0.000000 -0.055435 0.250796 0.250796 0.250796
5469.604980 0.000000 1280.346924 0.000000 0.994371 0.000000 -0.105952 0.251653 0.251653 0.251653
5471.761230 0.000000 1281.664307 0.000000 0.553166 0.000000 -0.833071 0.264135 0.264135 0.264135
5465.396484 0.000000 1283.654175 0.000000 0.027645 0.000000 -0.999618 0.274560 0.274560 0.274560
5644.526855 0.000000 1039.764526 0.000000 0.988236 0.000000 -0.152938 0.251346 0.251346 0.251346
5642.329590 0.000000 1041.423340 0.000000 0.792741 0.000000 -0.609559 0.255789 0.255789 0.255789
5642.704590 0.000000 1039.461304 0.000000 0.338941 0.000000 -0.940807 0.262118 0.262118 0.262118
5656.795410 0.000000 1157.599731 0.000000 0.905846 0.000000 -0.423606 0.253904 0.253904 0.253904
5659.635742 0.000000 1152.737915 0.000000 0.898877 0.000000 -0.438201 0.253949 0.253949 0.253949
5648.186523 0.000000 1148.838745 0.000000 0.804770 0.000000 -0.593587 0.255513 0.255513 0.255513
5657.283691 0.000000 1151.305298 0.000000 0.370144 0.000000 -0.928975 0.260710 0.260710 0.260710
5654.077637 0.000000 1146.862183 0.000000 0.953171 0.000000 -0.302432 0.252800 0.252800 0.252800
5663.330566 0.000000 1162.108643 0.000000 0.354355 0.000000 -0.935111 0.261654 0.261654 0.261654
5648.985352 0.000000 1151.863281 0.000000 0.765206 0.000000 -0.643785 0.257072 0.257072 0.257072
5658.057129 0.000000 1165.150635 0.000000 0.959650 0.000000 -0.281197 0.252740 0.252740 0.252740
5686.238281 0.000000 1186.049561 0.000000 0.960777 0.000000 -0.277322 0.252885 0.252885 0.252885
5655.955566 0.000000 1163.478027 0.000000 0.804429 0.000000 -0.594049 0.257047 0.257047 0.257047
5648.399414 0.000000 1157.408203 0.000000 0.991327 0.000000 -0.131422 0.251456 0.251456 0.251456
5654.189453 0.000000 1158.690674 0.000000 0.986884 0.000000 -0.161431 0.252358 0.252358 0.252358
5656.817383 0.000000 1162.721069 0.000000 0.866946 0.000000 -0.498401 0.256187 0.256187 0.256187
5656.998535 0.000000 1160.444214 0.000000 0.916097 0.000000 -0.400958 0.255356 0.255356 0.255356
5655.987793 0.000000 1158.325928 0.000000 0.767494 0.000000 -0.641056 0.260120 0.260120 0.260120
5652.417969 0.000000 1159.782837 0.000000 0.658125 0.000000 -0.752909 0.263541 0.263541 0.263541
5650.223633 0.000000 1152.840698 0.000000 0.979322 0.000000 -0.202310 0.252696 0.252696 0.252696
5648.059082 0.000000 1152.191406 0.000000 0.819505 0.000000 -0.573072 0.258018 0.258018 0.258018
5648.803711 0.000000 1152.818970 0.000000 0.809015 0.000000 -0.587788 0.258255 0.258255 0.258255
5649.333008 0.000000 1155.221313 0.000000 0.015577 0.000000 -0.999879 0.272374 0.272374 0.272374
5651.675781 0.000000 1155.904175 0.000000 0.946821 0.000000 -0.321762 0.255214 0.255214 0.255214
5650.104004 0.000000 1155.722656 0.000000 0.995359 0.000000 -0.096233 0.251534 0.251534 0.251534
5650.925293 0.000000 1155.460938 0.000000 0.032267 0.000000 -0.999479 0.274486 0.274486 0.274486
5653.558105 0.000000 1158.187622 0.000000 0.994040 0.000000 -0.109017 0.251735 0.251735 0.251735
5684.679199 0.000000 1205.861206 0.000000 0.984947 0.000000 -0.172858 0.251686 0.251686 0.251686
5686.252441 0.000000 1188.726440 0.000000 0.674302 0.000000 -0.738456 0.258789 0.258789 0.258789
4663.060547 0.000000 2413.943359 0.000000 0.916543 0.000000 -0.399937 0.253531 0.253531 0.253531
4664.471680 0.000000 2412.799805 0.000000 0.641124 0.000000 -0.767438 0.258791 0.258791 0.258791
4684.080078 0.000000 2403.632568 0.000000 0.797774 0.000000 -0.602957 0.256362 0.256362 0.256362
4687.736328 0.000000 2403.104980 0.000000 0.932562 0.000000 -0.361010 0.253608 0.253608 0.253608
4697.632324 0.000000 2387.561279 0.000000 0.269901 0.000000 -0.962888 0.264172 0.264172 0.264172
4817.722656 0.000000 2424.520996 0.000000 0.626831 0.000000 -0.779155 0.257806 0.257806 0.257806
4814.368652 0.000000 2428.197266 0.000000 0.042015 0.000000 -0.999117 0.264742 0.264742 0.264742
4974.671387 0.000000 2418.798340 0.000000 0.763016 0.000000 -0.646380 0.256733 0.256733 0.256733
4994.269043 0.000000 2482.261963 0.000000 0.441565 0.000000 -0.897229 0.260320 0.260320 0.260320
5008.905273 0.000000 2482.727539 0.000000 0.705473 0.000000 -0.708736 0.258186 0.258186 0.258186
4998.073242 0.000000 2482.615723 0.000000 0.035019 0.000000 -0.999387 0.265384 0.265384 0.265384
4922.082520 0.000000 2489.536865 0.000000 0.987132 0.000000 -0.159908 0.251779 0.251779 0.251779
4939.929688 0.000000 2497.318359 0.000000 0.943015 0.000000 -0.332752 0.252795 0.252795 0.252795
4976.647949 0.000000 2525.788330 0.000000 0.523370 0.000000 -0.852105 0.258563 0.258563 0.258563
4964.575195 0.000000 2487.701416 0.000000 0.080261 0.000000 -0.996774 0.262837 0.262837 0.262837
4972.127930 0.000000 2512.753906 0.000000 0.998307 0.000000 -0.058162 0.250521 0.250521 0.250521
4987.000977 0.000000 2523.113525 0.000000 0.619153 0.000000 -0.785271 0.258032 0.258032 0.258032
4984.096680 0.000000 2512.956543 0.000000 0.867458 0.000000 -0.497511 0.254810 0.254810 0.254810
4977.424316 0.000000 2523.729004 0.000000 0.689928 0.000000 -0.723878 0.257249 0.257249 0.257249
4968.199219 0.000000 2516.158447 0.000000 0.426436 0.000000 -0.904518 0.260299 0.260299 0.260299
4978.317871 0.000000 2489.765625 0.000000 0.156293 0.000000 -0.987711 0.263413 0.263413 0.263413
4968.567383 0.000000 2519.995850 0.000000 0.924507 0.000000 -0.381164 0.253820 0.253820 0.253820
4938.618164 0.000000 2498.856934 0.000000 0.625391 0.000000 -0.780311 0.259051 0.259051 0.259051
4970.257812 0.000000 2487.574951 0.000000 0.941166 0.000000 -0.337944 0.253249 0.253249 0.253249
4967.989746 0.000000 2511.216309 0.000000 0.955852 0.000000 -0.293848 0.252932 0.252932 0.252932
4970.135254 0.000000 2489.812012 0.000000 0.952968 0.000000 -0.303071 0.253219 0.253219 0.253219
4971.954590 0.000000 2509.018555 0.000000 0.835860 0.000000 -0.548943 0.256528 0.256528 0.256528
4970.712402 0.000000 2506.531006 0.000000 0.674561 0.000000 -0.738220 0.259692 0.259692 0.259692
4975.221680 0.000000 2526.014648 0.000000 0.445674 0.000000 -0.895195 0.261627 0.261627 0.261627
4974.049316 0.000000 2523.226074 0.000000 0.986448 0.000000 -0.164074 0.251774 0.251774 0.251774
4974.269531 0.000000 2520.614014 0.000000 0.973666 0.000000 -0.227978 0.252835 0.252835 0.252835
4991.384277 0.000000 2501.076660 0.000000 0.200589 0.000000 -0.979675 0.266446 0.266446 0.266446
4969.081055 0.000000 2512.829834 0.000000 0.363064 0.000000 -0.931764 0.266429 0.266429 0.266429
5003.786133 0.000000 2490.365479 0.000000 0.937503 0.000000 -0.347976 0.252984 0.252984 0.252984
5005.099609 0.000000 2505.089111 0.000000 0.587333 0.000000 -0.809345 0.258122 0.258122 0.258122
5001.795410 0.000000 2485.336914 0.000000 0.348159 0.000000 -0.937436 0.261263 0.261263 0.261263
5003.442871 0.000000 2503.121094 0.000000 0.306353 0.000000 -0.951918 0.261398 0.261398 0.261398
4993.654297 0.000000 2499.670654 0.000000 0.503925 0.000000 -0.863747 0.259696 0.259696 0.259696
5009.145996 0.000000 2487.866699 0.000000 0.483421 0.000000 -0.875388 0.261513 0.261513 0.261513
5010.442383 0.000000 2500.329102 0.000000 0.446870 0.000000 -0.894599 0.262097 0.262097 0.262097
5013.729980 0.000000 2500.902588 0.000000 0.923112 0.000000 -0.384531 0.254262 0.254262 0.254262
5010.461914 0.000000 2501.893066 0.000000 0.603103 0.000000 -0.797664 0.260086 0.260086 0.260086
4996.993652 0.000000 2509.495605 0.000000 0.999596 0.000000 -0.028415 0.250315 0.250315 0.250315
5007.853516 0.000000 2500.049805 0.000000 0.895176 0.000000 -0.445712 0.256012 0.256012 0.256012
5002.015137 0.000000 2495.514893 0.000000 0.424243 0.000000 -0.905549 0.263997 0.263997 0.263997
5002.814941 0.000000 2494.675781 0.000000 0.925763 0.000000 -0.378104 0.254792 0.254792 0.254792
5003.088379 0.000000 2497.910645 0.000000 0.988885 0.000000 -0.148681 0.252166 0.252166 0.252166
5006.202637 0.000000 2499.016602 0.000000 0.361673 0.000000 -0.932305 0.269110 0.269110 0.269110
5009.859375 0.000000 2501.195068 0.000000 0.863137 0.000000 -0.504969 0.257533 0.257533 0.257533
5005.807617 0.000000 2503.373047 0.000000 0.952429 0.000000 -0.304760 0.254291 0.254291 0.254291
5007.359863 0.000000 2499.251221 0.000000 0.445505 0.000000 -0.895280 0.267651 0.267651 0.267651
5811.759277 0.000000 2290.739746 0.000000 0.847308 0.000000 -0.531102 0.254770 0.254770 0.254770
5819.000977 0.000000 2297.176025 0.000000 0.373512 0.000000 -0.927625 0.260381 0.260381 0.260381
5806.693848 0.000000 2291.433594 0.000000 0.424732 0.000000 -0.905319 0.260069 0.260069 0.260069
5807.250488 0.000000 2288.355957 0.000000 0.994721 0.000000 -0.102617 0.251036 0.251036 0.251036
5795.093262 0.000000 2281.751221 0.000000 0.086576 0.000000 -0.996245 0.263848 0.263848 0.263848
5790.021484 0.000000 2267.641846 0.000000 0.359411 0.000000 -0.933179 0.261902 0.261902 0.261902
5797.265137 0.000000 2279.038574 0.000000 0.947750 0.000000 -0.319015 0.253263 0.253263 0.253263
5800.469727 0.000000 2278.640137 0.000000 0.973700 0.000000 -0.227836 0.252381 0.252381 0.252381
5808.334961 0.000000 2275.478271 0.000000 0.279105 0.000000 -0.960260 0.264831 0.264831 0.264831
5810.227051 0.000000 2293.182373 0.000000 0.470387 0.000000 -0.882460 0.265384 0.265384 0.265384
5846.782715 0.000000 2266.678467 0.000000 0.606346 0.000000 -0.795201 0.258435 0.258435 0.258435
5874.861328 0.000000 2314.892578 0.000000 0.810709 0.000000 -0.585449 0.256324 0.256324 0.256324
5846.014160 0.000000 2264.909180 0.000000 0.645962 0.000000 -0.763369 0.259297 0.259297 0.259297
5867.248047 0.000000 2306.572021 0.000000 0.748470 0.000000 -0.663169 0.258394 0.258394 0.258394
5866.127930 0.000000 2306.828369 0.000000 0.061450 0.000000 -0.998110 0.267474 0.267474 0.267474
5849.916992 0.000000 2360.625488 0.000000 0.574754 0.000000 -0.818326 0.258375 0.258375 0.258375
5857.491699 0.000000 2321.754639 0.000000 0.942750 0.000000 -0.333501 0.253024 0.253024 0.253024
5844.436035 0.000000 2358.131348 0.000000 0.976731 0.000000 -0.214469 0.252003 0.252003 0.252003
5851.190918 0.000000 2344.168701 0.000000 0.700816 0.000000 -0.713342 0.257262 0.257262 0.257262
5871.135742 0.000000 2331.915527 0.000000 0.461295 0.000000 -0.887247 0.260047 0.260047 0.260047
5847.416992 0.000000 2363.792236 0.000000 0.640326 0.000000 -0.768103 0.258118 0.258118 0.258118
5854.725586 0.000000 2319.451904 0.000000 0.981583 0.000000 -0.191034 0.251776 0.251776 0.251776
5861.372070 0.000000 2319.923828 0.000000 0.732437 0.000000 -0.680835 0.257736 0.257736 0.257736
5840.790527 0.000000 2324.014648 0.000000 0.446998 0.000000 -0.894535 0.262130 0.262130 0.262130
5861.265137 0.000000 2335.522949 0.000000 0.590143 0.000000 -0.807299 0.259969 0.259969 0.259969
5839.354980 0.000000 2362.081543 0.000000 0.843378 0.000000 -0.537321 0.256019 0.256019 0.256019
5844.063965 0.000000 2356.733643 0.000000 0.013732 0.000000 -0.999906 0.267444 0.267444 0.267444
5877.988770 0.000000 2327.098633 0.000000 0.710955 0.000000 -0.703237 0.259687 0.259687 0.259687
5864.388184 0.000000 2422.345459 0.000000 0.993649 0.000000 -0.112525 0.251056 0.251056 0.251056
5861.886230 0.000000 2418.515381 0.000000 0.952799 0.000000 -0.303601 0.253379 0.253379 0.253379
5863.243164 0.000000 2423.244141 0.000000 0.913564 0.000000 -0.406696 0.254483 0.254483 0.254483
5867.365234 0.000000 2415.331543 0.000000 0.364638 0.000000 -0.931150 0.264014 0.264014 0.264014
5866.301758 0.000000 2415.889404 0.000000 0.719863 0.000000 -0.694116 0.258978 0.258978 0.258978
5891.050781 0.000000 2319.253662 0.000000 0.993209 0.000000 -0.116345 0.251161 0.251161 0.251161
5899.761719 0.000000 2340.269043 0.000000 0.851650 0.000000 -0.524112 0.255716 0.255716 0.255716
5924.309082 0.000000 2345.245361 0.000000 0.529448 0.000000 -0.848343 0.261600 0.261600 0.261600
5912.470703 0.000000 2338.607422 0.000000 0.282699 0.000000 -0.959209 0.263986 0.263986 0.263986
5924.170898 0.000000 2370.256104 0.000000 0.910083 0.000000 -0.414426 0.254854 0.254854 0.254854
5917.463379 0.000000 2341.935303 0.000000 0.989418 0.000000 -0.145092 0.251686 0.251686 0.251686
5956.679688 0.000000 2368.474365 0.000000 0.736535 0.000000 -0.676399 0.256932 0.256932 0.256932
5897.084961 0.000000 2383.161621 0.000000 0.248820 0.000000 -0.968550 0.261281 0.261281 0.261281
5921.062500 0.000000 2424.417725 0.000000 0.881816 0.000000 -0.471593 0.254230 0.254230 0.254230
5896.131348 0.000000 2381.731445 0.000000 0.310953 0.000000 -0.950425 0.264408 0.264408 0.264408
5904.268066 0.000000 2384.621826 0.000000 0.999962 0.000000 -0.008704 0.250099 0.250099 0.250099
6015.163574 0.000000 2461.502686 0.000000 0.187106 0.000000 -0.982340 0.262512 0.262512 0.262512
5988.342285 0.000000 2484.496826 0.000000 0.477115 0.000000 -0.878841 0.260284 0.260284 0.260284
5971.337891 0.000000 2428.987061 0.000000 0.994737 0.000000 -0.102458 0.251108 0.251108 0.251108
6017.280273 0.000000 2462.677490 0.000000 0.840749 0.000000 -0.541425 0.256035 0.256035 0.256035
6046.868164 0.000000 2449.570312 0.000000 0.513942 0.000000 -0.857825 0.262033 0.262033 0.262033
5951.169434 0.000000 2502.190186 0.000000 0.145010 0.000000 -0.989430 0.264233 0.264233 0.264233
5964.917480 0.000000 2503.509521 0.000000 0.214863 0.000000 -0.976644 0.264284 0.264284 0.264284
5954.009277 0.000000 2506.361328 0.000000 0.095901 0.000000 -0.995391 0.266430 0.266430 0.266430
6379.596680 0.000000 2364.400879 0.000000 0.484637 0.000000 -0.874715 0.259570 0.259570 0.259570
6381.747070 0.000000 2364.551025 0.000000 0.962761 0.000000 -0.270353 0.252486 0.252486 0.252486
6387.649902 0.000000 2368.480957 0.000000 0.819790 0.000000 -0.572664 0.256660 0.256660 0.256660
6358.733398 0.000000 2381.114746 0.000000 0.989683 0.000000 -0.143273 0.251709 0.251709 0.251709
"}
