﻿STATES = {

	s:STATE_DHAL_NIKHUVAD = {
		create_state = {
			country = c:L05
			owned_provinces = { "x637DB2" "xF94F81" "x92E66F" "x0E2C7E" "xD22CA7" }
		}
		
		
	}

	s:STATE_DHEBIJ_JANAB = {
		create_state = {
			country = c:L05
			owned_provinces = { "x56F9EC" "x842FCB" "x371F8E" "x87F71A" }
		}
		
		
	}

	s:STATE_SUHRATBA_YAJ = {
		create_state = {
			country = c:L05
			owned_provinces = { "x159F03" "x0962A6" "x7B0511" "x39FA16" "x6E50DC" }
		}
		
		
	}

	s:STATE_QASRIYINGI = {
		create_state = {
			country = c:L05
			owned_provinces = { "x64EEAC" "x046160" "x54A798" "xE0C160" "x809D71" "xBF990C" }
		}
		
		
	}

	s:STATE_BAASHI_BADDA = {
		create_state = {
			country = c:L05
			owned_provinces = { "x25E624" "xC6F466" "x14F888" "x394174" "x53A1EB" }
		}
		
		
	}
	
	s:STATE_SUHRATBA_YAHIN = {
		create_state = {
			country = c:L05
			owned_provinces = { "xF88745" "x23DAFA" "x22FB02" "x512A4E" }
		}
		
		
	}

	s:STATE_DHAL_TANIZUUD = {
		create_state = {
			country = c:L06
			owned_provinces = { "xDAB2E8" "x7B5A09" "x7F137D" "x0BFAB5" }
		}
		
		
	}

	s:STATE_JURITAQA = {
		create_state = {
			country = c:L06
			owned_provinces = { "x7A8026" "x32E2D3" "xB69B54" }
		}
		
		
	}

	s:STATE_MPAKA = {
		create_state = {
			country = c:L06
			owned_provinces = { "x1E72D7" "x3D48BC" "x6CEA94" "xF2EFEA" }
		}
		
		
	}

	s:STATE_DEBIJ_SHAR = {
		create_state = {
			country = c:L05
			owned_provinces = { "x736D8D" "x35042C" "x0CBC46" "xC977E5" }
		}
		create_state = {
			country = c:L07
			owned_provinces = { "x61C75E" }
		}
		create_state = {
			country = c:L08
			owned_provinces = { "x2F700F" }
		}
		
		
	}

	s:STATE_ASHAMAD_BARIGA = {
		create_state = {
			country = c:L08
			owned_provinces = { "x0C7167" "xBA14D0" "xF14D7F" "xD98049" "x888DF8" }
		}
		
		
	}
	
	s:STATE_DHAI_BAEIDAG = {
		create_state = {
			country = c:L08
			owned_provinces = { "xE8C9F9" "x8F515C" "xB19085" }
		}
		
		
	}

	s:STATE_QASRI_ABEESOOYINKA = {
		create_state = {
			country = c:L07
			owned_provinces = { "x896517" "x12C30C" "x23B901" "x3D0E08" "x6477B7" "xEBCB1F" "xE936A7" "x48CB0C" }
		}
		
		
	}
	
	s:STATE_QAYNSLAND = {
		create_state = {
			country = c:L09
			owned_provinces = { "x67B72F" "x4DC795" "xCDB694" "x02A0ED" "xE3773D" "x89017B" "xBDF7C5" "x6B35A3" "x9D99B5" }
		}
		
		
	}

	s:STATE_THE_OHITS = {
		create_state = {
			country = c:L09
			owned_provinces = { "x2D93E0" "x5B1BD8" "xA703FF" "xB34FB5" "xD6BD94" "xDE0DDA" "xE27C89" "xE4403D" "xF75DB2" }
		}
		
		
	}

	s:STATE_HARENMARCHES = {
		create_state = {
			country = c:L10
			owned_provinces = { "xCDE994" "xDC74C9" "x3DE367" "x560617" "x8FE18C" "x718F0D" }
		}
		
		
	}

	s:STATE_SAMAANIA = {
		create_state = {
			country = c:L11
			owned_provinces = { "x6B834D" "x680D38" "x0BDF26" "x2187DF" }
		}
		
		
	}

	s:STATE_ELIANDE = {
		create_state = {
			country = c:L12
			owned_provinces = { "xB06E77" "x996B08" "x739AD2" }
		}
		create_state = {
			country = c:L18
			owned_provinces = { "x635EA2" } 
		}
		
		
	}

	s:STATE_HADEADOL = {
		create_state = {
			country = c:L12
			owned_provinces = { "xC6667E" "x46C83A" "xF7EAB1" }
		}
		create_state = {
			country = c:L13
			owned_provinces = { "x9CC8D6" "x6FC76B" "xCB8D15" "x08606B" }
		}
		create_state = {
			country = c:L14
			owned_provinces = { "xAA4D42" }
		}
		
		
	}

	s:STATE_HARASCILDE = {
		create_state = {
			country = c:L15
			owned_provinces = { "x1C09ED" "x5F6263" "x8A5057" "xC1BD3D" "xC63F33" "xC88E52" "xD1FD51" "xE557A5" }
		}
		create_state = {
			country = c:L16
			owned_provinces = { "xEC0A7C" "x7406B0" }
		}
		
		
	}

	s:STATE_OLD_JINNAKAH = {
		create_state = {
			country = c:L05
			owned_provinces = { "x0452B0" "xB3D418" "xC9E1DE" "x397C06" }
		}
		create_state = {
			country = c:L16
			owned_provinces = { "xC25143" }
		}
		create_state = {
			country = c:L19
			owned_provinces = { "x49247E" }
		}
		
		
	}


	s:STATE_SAMISHESHA = { 
		create_state = {
			country = c:L39
			owned_provinces = { "x1D6E66" "x31FF0F" "x3AC9A6" "x6E920C" "x766E25" "x845A29" "x96D2C7" "xA7F81F" "xB94138" "xCAF494" "xE47886" "xFA4D42" }
		}
		
		add_homeland = cu:mantimatu
	}
	s:STATE_SAQRAXAT = { 
		create_state = {
			country = c:L40
			owned_provinces = { "x0D380C" "x1F77AA" "x20383B" "x373654" "x526D71" "xB47CA0" "xD9ED30" "xE4F01B" }
		}
		
		add_homeland = cu:kudemtu
	}
	s:STATE_ZUVAVIM = { 
		create_state = {
			country = c:L35
			owned_provinces = { "x4CFE9E" "x560375" "x651DDD" "x7E4E59" "xB1BEEA" }
		}
		
		add_homeland = cu:mantimatu
	}
	s:STATE_CHIBUSWA = { 
		create_state = {
			country = c:L35	#zuvavim
			owned_provinces = { "x42601C" "x7D1F3D" "x992EA9" "xF8078E" }
		}
		
		add_homeland = cu:kuivanhi
		add_homeland = cu:horakheti
	}
	s:STATE_KULUGIASH = { 
		create_state = {
			country = c:L38
			owned_provinces = { "x0D77AD" "x483F38" "x63EC1F" "x78557A" "x99A3C7" "xA04405" "xBF1B70" "xF1FDB4" "xF2E955" "xFDA853" }
		}
		
		add_homeland = cu:kudemtu
	}
	s:STATE_IQHEKABI = { 
		create_state = {
			country = c:L37
			owned_provinces = { "x29BD33" "x65483C" "x66304D" "x6872A7" "x6FF15C" "xB4AD5B" "xC38A8D" "xCB396B" "xD28E20" "xEAE0C9" }
		}
		
		add_homeland = cu:gumzemo
	}
	s:STATE_MUHAQAAR = { 
		create_state = {
			country = c:L43
			owned_provinces ={ "x252F61" "x3ECD91" "x557968" "x63151D" "x65CF07" "x7098FC" "x8337CC" "x912AF0" "xF60574" }
		}
		
		add_homeland = cu:tijarikheti
	}
	s:STATE_SAMSUMBAT = { 
		create_state = {
			country = c:L42
			owned_provinces = { "x283025" "x36F50C" "x3D5F28" "x556575" "x681219" "x77C374" "x8CE195" "xD5F84C" "xED7993" }
		}
		
		add_homeland = cu:tijarikheti
	}
	s:STATE_ARAMOOLE = { 
		create_state = {
			country = c:L41
			owned_provinces = { "x055A0B" "x0F08C1" "x145E14" "x336679" "x832455" "xA465E3" "xA90DBC" "xCDEFBB" }
		}
		
		add_homeland = cu:tijarikheti
	}

	s:STATE_DUWARKANI = { 
		create_state = {
			country = c:L44
			owned_provinces = { "x4939D3" "x79417A" "x8759FB" "x9BD1E4" "xADC7BA" "xDB5832" }
		}
		
		add_homeland = cu:tijarikheti
		add_homeland = cu:nzeri_harpy
	}

	s:STATE_ISAGUMZE = { 
		create_state = {
			country = c:L20	#L39 is Isagumze proper. But this is occupied by lizardfolk in the few vicky3 lore we have
			owned_provinces = { "x1B2F72" "x3C49D8" "x79A52E" "x7A60C1" "xB0B522" "xC929AF" "xCE2B46" "xD8D18F" }
		}
		
		add_homeland = cu:ikilshebe
	}

	s:STATE_KUIIKA = { 
		create_state = {
			country = c:L20
			owned_provinces = { "x15F8DE" "x3458EA" "x551208" "x5C8DFA" "x6CB2AC" "x6F03E2" "x7502F7" "x799A8D" "x90B9EF" "x9BD28A" "xAA4132" "xAB5FEB" "xC135CB" }
		}
		
		add_homeland = cu:zuvunwa #this place is owned by these two cultures in eu4
		add_homeland = cu:kuivanhi #this place is owned by these two cultures in eu4
	}
	s:STATE_GOMUVURI = { 
		create_state = {
			country = c:L20
			owned_provinces = { "x1927F2" "xAB0B4E" "xAD7BD5" "xD897CB" "xE40C7C" "xF388A5" }
		}
		
		add_homeland = cu:kuivanhi
	}
	s:STATE_BIVIRIR = { 
		create_state = {
			country = c:L20
			owned_provinces = { "x1F5936" "x5457A7" "x893E13" "x903D13" "xAD3ED8" "xD00D66" }
		}
		
		add_homeland = cu:imperial_lizardfolk
		add_homeland = cu:ikilshebe #in EU4 these guys are the onlycountry here
	}
	s:STATE_KARRASK = { 
		create_state = {
			country = c:L20
			owned_provinces = { "x115C75" "x231782" "x28089B" "x432115" "x465C56" "x561B89" "x77E5E0" "x8C2593" "x937036" "xA681D7" "xBBD7EC" "xD55571" "xD9744E" "xE6EAF3" "xEEF99B" }
		}
		
		add_homeland = cu:karrask_lizardfolk 
	}
	s:STATE_ASARTA = { 
		create_state = {
			country = c:L20
			owned_provinces = { "x044BF3" "x4C1B13" "x5743B9" "x68934A" "x8F4CE1" "xAC9807" "xB4DCC4" "xD89C52" "xE5498F" }
		}
		
		add_homeland = cu:imperial_lizardfolk 
	}
	s:STATE_KATSANADA = { 
		create_state = {
			country = c:L20
			owned_provinces = { "x20566B" "x3C54B0" "x4F5410" "x5DE532" "x6CFC28" "x8E9C72" "xCB6403" "xDEDF3B" "xF5C72F" "xF82DC9" }
		}
		
		add_homeland = cu:imperial_lizardfolk 
	}
	s:STATE_SYKARRAZ = { 
		create_state = {
			country = c:L20
			owned_provinces = { "x0FE5AF" "x13E98D" "x1E6C9F" "x27BBE1" "x2DCD84" "x466C49" "x48B296" "x5021A2" "x60BA3A" "xC25C95" "xCDE9C3" "xE09953" "xE5B3B5" "xE720F5" "xED90B9" "xF97261" }
		}
		
		add_homeland = cu:imperial_lizardfolk 
	}
	s:STATE_ASHKHA = { 
		create_state = {
			country = c:L20
			owned_provinces = { "x04456B" "x0ACBF0" "xA487F1" "xB43223" "xCB83AA" "xFF1E08" }
		}
		
		add_homeland = cu:imperial_lizardfolk 
	}
	s:STATE_KHUGRA = { 
		create_state = {
			country = c:L20
			owned_provinces = { "x2B0C7F" "x434E19" "x5D1D9A" "x6DB940" "x7131CC" "x7A6BD1" "x9FB8FE" "xC98245" "xF5532C" }
		}
		
		add_homeland = cu:khugran_lizardfolk 
	}
	s:STATE_NAZHNI = { 
		create_state = {
			country = c:L20
			owned_provinces = { "x35A361" "x3EBB01" "x6BB684" "x6C8AE0" "x773071" "x93170A" "x9BACE5" "xE98BEB" }
		}
		
		add_homeland = cu:nazhni_lizardfolk 
	}
	s:STATE_YASSA = {
		create_state = {
			country = c:L07
			owned_provinces = { "x102158" "x9EAD2A" "xC974B1" "xDFBCEA" "xc2fd33" }
		}
		create_state = {
			country = c:L20
			owned_provinces = { "x091bc1" "x8a756a" "x0ce5d6" } 
		}
		add_homeland = cu:yassan_lizardfolk 
	}
	s:STATE_KAPASHAN_KAKAHZ = { 
		create_state = {
			country = c:L20
			owned_provinces = { "x1737C4" "x20B4B2" "x31455A" "x612C58" "x756CE6" "x9F42E8" "xA49011" "xE218E1" }
		}
		
		add_homeland = cu:ashhama_lizardfolk 
		add_homeland = cu:imperial_lizardfolk 
	}
	s:STATE_ZATSUTI = { 
		create_state = {
			country = c:L20
			owned_provinces = { "x065652" "x0787B9" "x104785" "x13F8AE" "x3C5388" "x4F1337" "x527AA4" "x653F94" "x66EE9B" "x97C61D" "xA949C5" "xC5E6C0" "xCCAED4" }
		}
		
		add_homeland = cu:zatsutas_lizardfolk
	}
	s:STATE_ADGUR_GASHA = { 
		create_state = {
			country = c:L21
			owned_provinces = { "x1080FA" "x222075" "x3D2EE3" "x509A66" "x57F214" "x842B61" "x854479" "x87BF62" "x8ED460" "x99F64C" "xBBD01B" "xBF7674" "xC485DD" }
		}
		
		add_homeland = cu:ashhama_lizardfolk 
	}
	s:STATE_ZULBUR = { 
		create_state = {
			country = c:L21
			owned_provinces = { "x1A8E5D" "x4305F7" "x5D1CC7" "x6F6188" "x820BAC" "x8668FA" "x89F9CB" "x9103F4" "xC1F133" "xC5027C" "xCD9120" }
		}
		
		add_homeland = cu:ashhama_lizardfolk 
	}
	s:STATE_ASHAKANI = { 
		create_state = {
			country = c:L21
			owned_provinces = { "x0111A5" "x20DFF1" "x50C7A3" "x786C08" "x8A5138" "xAC74A1" }
		}
		
		add_homeland = cu:ashhama_lizardfolk 
	}
	s:STATE_KATIDARIGA = { 
		create_state = {
			country = c:L21
			owned_provinces = { "x0CC1F9" "x6BDE42" "x709275" "x85E241" "x8716EB" "xA24756" "xA51039" "xFFA5BA" }
		}
		
		add_homeland = cu:cyazizeta_lizardfolk 
		add_homeland = cu:tanizu #its just tanizu majority in eu4
	}
	s:STATE_DATAKH = { #Split state
		create_state = {
			country = c:L21
			owned_provinces = { "x1CFB9C" "x337512" "x49EE6D" "x510B6A" "x6BD65C" "x9CC172" "xD25350" "xD32FDB" "xD6FB95" }
		}
		
		add_homeland = cu:cyazizeta_lizardfolk 
		add_homeland = cu:tanizu #its just tanizu majority in eu4
	}
	s:STATE_GREATER_SHANGRA = { 
		create_state = {
			country = c:L21
			owned_provinces = { "x3E3049" "x41B615" "x455D6D" "x48BA21" "x7B8FE4" "xA5E523" "xB6F0A0" }
		}
		
		add_homeland = cu:ashhama_lizardfolk 
		add_homeland = cu:tanizu #its just tanizu majority in eu4
	}
	s:STATE_SHALAZAR = {
		create_state = {
			country = c:L21
			owned_provinces = { "x24C462" "x3809DB" "x3F10F6" "x72AF42" "x9E77BF" "xAA280F" "xD8DFFB" }
		}
		
		add_homeland = cu:ashhama_lizardfolk 
	}
	s:STATE_BAVABETSARO = {
		create_state = {
			country = c:B03	#CLSTC for Damescrown furniture vibes
			owned_provinces = { "x2F8E4F" "x9CC12C" "xA5131B" "xA53688" }
		}
		
		add_homeland = cu:zohebidi_halfling
	}
	s:STATE_AMEZATANY = {
		create_state = {
			country = c:L35 #Zuvavim owning Rafayo
			owned_provinces = { "x5A517F" "x975940" "xC209EA" }
		}
		create_state = {
			country = c:A03 #Lorent annoyingly owning Saikinoma pass
			owned_provinces = { "x3DAB40" }
		}
		create_state = {
			country = c:A09 #Busilari Lelanan Treaty Port St. Lel
			owned_provinces = { "x83545A" }
			state_type = treaty_port
		}
		create_state = {
			country = c:L46	#Tvar
			owned_provinces = { "x3DED88" "x5180A5" "x8A137E" "xB7C70B" "xC37DDD" }
		}
		
		add_homeland = cu:amezatany_halfling 
		add_homeland = cu:otakazemby_human 
	}
	s:STATE_MIHITARAB = {
		create_state = {
			country = c:L47
			owned_provinces = { "x1DBD4A" "x21CDCB" "x2E767E" "x4774C5" "x4A02DB" "x4D0B3F" "x6CEB43" "x718C09" "x998773" "xAD2283" "xC88B36" "xDF3D58" "xEAB74B" }
		}
		create_state = {
			country = c:A09	#Busilari island for now
			owned_provinces = { "xAD2283" }
		}
		
		add_homeland = cu:fomarati_halfling 
		add_homeland = cu:mboala_halfling 
	}
	s:STATE_MAPOTIBOKBO = {
		create_state = {
			country = c:L47
			owned_provinces = { "xB0E81E" "xC1BCC7" "xD6950F" }
		}
		create_state = {
			country = c:L49
			owned_provinces = { "x083920" "x0D4CBD" "x8A0F06" "xAC6687" "xF39A4A" }
		}
		
		add_homeland = cu:mboala_halfling 
	}
	s:STATE_IBIDINTELY = {
		create_state = {
			country = c:L47
			owned_provinces = { "x2143E7" }
		}
		create_state = {
			country = c:L48
			owned_provinces = { "x190D48" "x58DCDF" "xA993F1" }
		}
		create_state = {
			country = c:A09
			owned_provinces = { "x37F07C" "x5739DD" "xCEB35A" }
		}
		create_state = {
			country = c:L50
			owned_provinces = { "x15CD63" "x60E350" "xF8A0D8" }
		}
		
		add_homeland = cu:fomarati_halfling 
	}
	s:STATE_MAZAVA = {
		create_state = {
			country = c:L51
			owned_provinces = { "x03F6B3" "x26D7F1" "x492C1E" "x506AF5" "x68F34B" "xB18808" "xB46B8D" "xB722C0" "xBD7817" "xCD1843" "xCF57A8" "xD7D98A" "xDE3533" "xEF8372" }
		}
		create_state = {
			country = c:L20	#Sykarraz
			owned_provinces = { "x465cd9" }
		}
		create_state = {
			country = c:A03	#Lorent
			owned_provinces = { "x9a56c4" }
		}
		create_state = {
			country = c:A04	#Northern League
			owned_provinces = { "x088e13" }
		}
		
		add_homeland = cu:mazava_halfling 
	}
	s:STATE_SIL_BERKHENS_LAND = {
		create_state = {
			country = c:L52
			owned_provinces = { "x48060A" "x5636A0" "x721990" "x8DFBA2" "xB5A3C6" "xBFD49D" "xCFD6DF" "xDBE152" "xFEFEE3" }
		}
		
		add_homeland = cu:zohebidi_halfling 
	}
}